-31.593487028292568,"{r -> -0.9579525646716418, μ1 -> 1.022147588350936*^-9, μ2 -> 0.06882675406755047, μ4 -> 0.10528499972892395}"
-51.61731194237855,"{r -> -0.7031808538178621, μ1 -> 0.03827183228621194, μ2 -> 0.12563931968241288, μ4 -> 0.1006151408783023}"
-63.76963113203248,"{r -> -0.9201372946449519, μ1 -> 0.4681829795175917, μ2 -> 0.03136081162085352, μ4 -> 0.12331554303876475}"
-134.81592958303975,"{r -> -0.9426535003913288, μ1 -> 0.29539206731093437, μ2 -> 0.05562515668816713, μ4 -> 0.5296833594678393}"
-108.82905647220532,"{r -> -0.9443832335831853, μ1 -> 0.15217320089339395, μ2 -> 0.21614646949957103, μ4 -> 0.3095275267793865}"
-19.474396408454236,"{r -> -0.9272495776718952, μ1 -> 0.05772979324283857, μ2 -> 0.026220122333329952, μ4 -> 0.02668480021467953}"
-5.337283620972494,"{r -> -0.9956364873762904, μ1 -> -2.883463030654101*^-33, μ2 -> 0.02591735697891286, μ4 -> -9.183549615799121*^-41}"
-37.502401887634896,"{r -> -0.6980249622033177, μ1 -> 0.08527887287806307, μ2 -> 0.05971003678775882, μ4 -> 0.03632767010409142}"
-90.78193628092303,"{r -> -0.9185933739110375, μ1 -> 0.2671227674122333, μ2 -> 0.26016449222256743, μ4 -> 0.21283864000190175}"
-41.843841642388,"{r -> -0.7723547865396849, μ1 -> 0.07896365521849354, μ2 -> 0.04786155735350448, μ4 -> 0.14136448866148738}"
-5.119026165842397,"{r -> -0.813567221890388, μ1 -> 0.029251084551335762, μ2 -> 1.1142779188550793*^-10, μ4 -> 1.1142779188550958*^-10}"
-18.9235711236419,"{r -> -0.9458476740141314, μ1 -> 0., μ2 -> 1.3109948264376404*^-8, μ4 -> 0.3242665925448682}"
-20.830696769649666,"{r -> -0.6756370679272029, μ1 -> 0.06970200703764626, μ2 -> 0.07087603778219652, μ4 -> 0.027334587850583146}"
-18.27157002504224,"{r -> -0.9352516963381005, μ1 -> 0.06573351319631082, μ2 -> 0.030013177552912135, μ4 -> 0.029902491168653178}"
-18.540857064819555,"{r -> -0.7347533119592795, μ1 -> 0.03613914626227428, μ2 -> 0., μ4 -> 0.14456093111379828}"
-44.99173167030362,"{r -> -0.8686237177829447, μ1 -> 0.42605193331542474, μ2 -> 0.06680811074311142, μ4 -> 0.013654135814120578}"
-38.81978827520895,"{r -> -0.8251022545626695, μ1 -> 0.22183400267143696, μ2 -> 0.03425261946489916, μ4 -> 0.08175369295055875}"
-50.70041254249324,"{r -> -0.8139112919258992, μ1 -> 0.34958607162454763, μ2 -> 0.1296146404461372, μ4 -> 7.61535741819588*^-11}"
-99.5231794481242,"{r -> -0.6596954018731775, μ1 -> 0.7306321495000767, μ2 -> 0.26019685482433297, μ4 -> 6.709775964325091*^-11}"
-55.116843556842554,"{r -> -0.9789288261891018, μ1 -> 0.09201092290055025, μ2 -> 0.12857958226934435, μ4 -> 0.30300216231089544}"
-19.965589902393955,"{r -> -0.13898774559073024, μ1 -> 0.0723845262112463, μ2 -> 0., μ4 -> 0.018055462771488184}"
-25.16667322851363,"{r -> -0.7320839378357233, μ1 -> 0.06214356040728056, μ2 -> 0.06165719512289226, μ4 -> 0.05613581093876855}"
-14.159465740354774,"{r -> -0.9000315745470869, μ1 -> 0.035895626289975294, μ2 -> 0.03626270093989185, μ4 -> 0.03443431451884132}"
-21.64864316040696,"{r -> -0.8397509663837809, μ1 -> 0.06473658994445905, μ2 -> 0.031230846437267947, μ4 -> 0.061652171502769165}"
-8.591559572693644,"{r -> 0.07363591502046768, μ1 -> 0.033685966934231835, μ2 -> 1.383567619562592*^-9, μ4 -> 1.383567619562592*^-9}"
-70.57108300010546,"{r -> -0.7817316166625095, μ1 -> 0.22495040761560198, μ2 -> 0.301200849830596, μ4 -> 0.10653733941977338}"
-19.70463321376527,"{r -> -0.5954299194381806, μ1 -> 0.08255521910618441, μ2 -> 1.005643630684061*^-9, μ4 -> 0.0550053592305487}"
-69.97924069494509,"{r -> -0.8127179007472306, μ1 -> 0.7157781215172159, μ2 -> 3.970012998951369*^-9, μ4 -> 0.03842834970616241}"
-126.12032466460415,"{r -> -0.9584231475088182, μ1 -> 0.6112726552472069, μ2 -> 0.2914275276855227, μ4 -> 0.26681176458756906}"
-47.55034183321031,"{r -> -0.9375701905971143, μ1 -> 0.09669745608066796, μ2 -> 0.0930321544340334, μ4 -> 0.2579597433075127}"
-14.900529176255258,"{r -> -0.8316176861322372, μ1 -> 0.03460964877265416, μ2 -> 0.033943323881733725, μ4 -> 0.03261230630546563}"
-19.79399625461804,"{r -> -0.7175152324814335, μ1 -> 0.08736716078376328, μ2 -> 1.1516620834603406*^-10, μ4 -> 0.05821155708990863}"
-49.42040963809203,"{r -> -0.8139709992875588, μ1 -> 0.23183672103930208, μ2 -> 0.12042074022374147, μ4 -> 0.057373006400787435}"
-24.786138821832047,"{r -> -0.7148766716499575, μ1 -> 0.09184296795495966, μ2 -> 0.056894185604219105, μ4 -> 0.025618229822663936}"
-19.476530935526803,"{r -> -0.8081227546642499, μ1 -> 0.06027946939392526, μ2 -> 3.006073663171164*^-11, μ4 -> 0.09040356935360712}"
-94.38759466919977,"{r -> -0.8658175478300931, μ1 -> 0.30576306315293716, μ2 -> 0.2927595749495209, μ4 -> 0.24396260450853005}"
-21.042597471141605,"{r -> -0.6197858065592721, μ1 -> 0.029540727701376564, μ2 -> 0.02832194723092217, μ4 -> 0.08308838536234689}"
-36.288891261042295,"{r -> -0.9957407939253787, μ1 -> 0.18498138380006499, μ2 -> 0.16346779457052604, μ4 -> 0.020611703849425407}"
-74.35492970748349,"{r -> -0.9150245583355063, μ1 -> 0.2899385120285676, μ2 -> 0.1710655106970904, μ4 -> 0.2615541225434816}"
-53.185477879876,"{r -> -0.8572485641373869, μ1 -> 0.162832535711389, μ2 -> 0.2015439164240297, μ4 -> 0.13202373859180128}"
-42.97095930481791,"{r -> -0.7601080730906353, μ1 -> 0.30160551544088443, μ2 -> 0., μ4 -> 0.07305226298701045}"
-23.3786810019835,"{r -> -0.7022640667723679, μ1 -> 0.06170836259090244, μ2 -> 0.059182919830385636, μ4 -> 0.055731356650728044}"
-73.34379860390942,"{r -> -0.8872706257592466, μ1 -> 0.1736877900995607, μ2 -> 0.16572831841232225, μ4 -> 0.39327476946491274}"
-34.8925361258155,"{r -> -0.8304362308999266, μ1 -> 0.2054680168688433, μ2 -> 0.06144591186531808, μ4 -> 0.09333063634873631}"
-50.15877054412961,"{r -> -0.856545323755406, μ1 -> 0.1891866011372575, μ2 -> 0.07436513911306854, μ4 -> 0.1776259060974974}"
-24.799220324784375,"{r -> -0.610314144038236, μ1 -> 0.028042484476217405, μ2 -> 0.05635450694862137, μ4 -> 0.07871249223955348}"
-17.028919103338286,"{r -> -0.7900488964027801, μ1 -> 0.07055287169497473, μ2 -> 0.06221131861281056, μ4 -> 0.}"
-11.910914600866521,"{r -> 0.32341470972751574, μ1 -> 0.03382897685586806, μ2 -> 0., μ4 -> 0.}"
-60.776421393208665,"{r -> -0.8319532469108207, μ1 -> 0.23212608200935902, μ2 -> 0.16601590253622392, μ4 -> 0.11751811210210288}"
-56.57635032894388,"{r -> -0.9090588453895883, μ1 -> 0.41905945285676377, μ2 -> 0.27607234963410276, μ4 -> 0.14131134193364844}"
-24.37954598800149,"{r -> -0.8269296096209175, μ1 -> 0.03141491329366989, μ2 -> 0.14308580213741004, μ4 -> 0.01891661207014845}"
-5.069014592185031,"{r -> -0.998284660529245, μ1 -> 0.03386441020158749, μ2 -> 0., μ4 -> 1.0608851143836108*^-10}"
-13.495635234175484,"{r -> -0.805931517152626, μ1 -> 0.06689957825800304, μ2 -> 2.551670180447043*^-11, μ4 -> 0.03343958664431278}"
-48.90316853001846,"{r -> -0.9198327994453448, μ1 -> 0.1487422002468755, μ2 -> 0.0229143918040564, μ4 -> 0.27246178437952034}"
-24.725707177282686,"{r -> -0.8091189289369861, μ1 -> 0.2066160258930564, μ2 -> 0.040171410151751304, μ4 -> 4.9105137725320225*^-11}"
-28.31590048761523,"{r -> -0.7063383136970072, μ1 -> 0.06035613021719537, μ2 -> 0.06143405556084165, μ4 -> 0.08178687615965405}"
-30.61446300266082,"{r -> -0.7752374484807569, μ1 -> 0.26063587326540055, μ2 -> 1.6980041067769333*^-8, μ4 -> 0.027768114269674158}"
-25.327903203977627,"{r -> -0.729645103219432, μ1 -> 0.09736539756651759, μ2 -> 0.05655181264047032, μ4 -> 0.02628933815171437}"
-25.16667322851363,"{r -> -0.7320839378357233, μ1 -> 0.06214356040728056, μ2 -> 0.06165719512289226, μ4 -> 0.05613581093876855}"
-41.52706795996609,"{r -> -0.873805719452602, μ1 -> 0.09264154902794115, μ2 -> 0.08833548493953867, μ4 -> 0.1900861080297832}"
-39.179606909495064,"{r -> -0.7576953032287213, μ1 -> 0.20676073458034933, μ2 -> 0.008232061877103972, μ4 -> 0.09888817780554525}"
-39.6488479571198,"{r -> -0.8879759628066912, μ1 -> 0.028330536258107268, μ2 -> 0.06566403042159964, μ4 -> 0.239601104958057}"
-19.30579051710541,"{r -> -0.4089776813727399, μ1 -> 0.11305028295930943, μ2 -> 0.014656571187916368, μ4 -> 1.0584657276290433*^-9}"
-13.415440656078188,"{r -> -0.8068635987462638, μ1 -> 0.0726557923014149, μ2 -> 0.030484772173772205, μ4 -> 3.290636441766762*^-11}"
-37.91873476184098,"{r -> -0.9431165042405276, μ1 -> 0.4018061121426614, μ2 -> 0.03231540588793527, μ4 -> 0.022728265302192255}"
-35.80409684488734,"{r -> -0.8490928366189334, μ1 -> 0.13993999652005515, μ2 -> 0.02066682596703673, μ4 -> 0.14732652431648804}"
-19.881788694685262,"{r -> -0.700240352744727, μ1 -> 0.08504660046154908, μ2 -> 0., μ4 -> 0.05667030662998083}"
