-31.59348713060822,"{r -> -0.9579633497652111, μ1 -> 0., μ2 -> 0.06881792276390766, μ4 -> 0.10526341936362235}"
-51.61731194237851,"{r -> -0.7031808500744774, μ1 -> 0.038271831947671364, μ2 -> 0.12563932036039868, μ4 -> 0.10061513834893743}"
-63.76963113203249,"{r -> -0.9201373249526724, μ1 -> 0.46818299257353496, μ2 -> 0.03136080499795755, μ4 -> 0.12331554946770275}"
-133.75443701931272,"{r -> -0.9614165872084184, μ1 -> 0.30099276700928695, μ2 -> 0.05644737579753969, μ4 -> 0.5426958155239384}"
-108.82905647220527,"{r -> -0.9443983363430483, μ1 -> 0.1521743817470402, μ2 -> 0.21614814797641707, μ4 -> 0.3095299214040467}"
-19.474396408454286,"{r -> -0.9276567517946723, μ1 -> 0.05774198464780914, μ2 -> 0.02622566136270842, μ4 -> 0.026690429346739576}"
-5.3372836211214745,"{r -> -0.9956365073126123, μ1 -> 0., μ2 -> 0.025916912806084214, μ4 -> 0.}"
-37.50240188763484,"{r -> -0.6980325737403836, μ1 -> 0.0852792666317495, μ2 -> 0.059710300789451706, μ4 -> 0.03632783037748291}"
-90.78193628092308,"{r -> -0.9186126152048825, μ1 -> 0.2671254538149465, μ2 -> 0.2601671053778876, μ4 -> 0.2128407813910791}"
-41.84384164238797,"{r -> -0.7723643884615504, μ1 -> 0.07896407879913643, μ2 -> 0.04786181237664489, μ4 -> 0.14136524626122557}"
-5.119026165842396,"{r -> -0.8135672171635637, μ1 -> 0.029251084475096677, μ2 -> 1.1142779188539212*^-10, μ4 -> 1.1142779188548973*^-10}"
-18.9235711236419,"{r -> -0.9458476740141314, μ1 -> 0., μ2 -> 1.3109948264376404*^-8, μ4 -> 0.3242665925448682}"
-20.83069676964969,"{r -> -0.675642955390079, μ1 -> 0.06970224667532067, μ2 -> 0.07087628301379763, μ4 -> 0.02733467796161309}"
-18.27157002504227,"{r -> -0.9353936983173694, μ1 -> 0.06573833929713042, μ2 -> 0.030015370772928394, μ4 -> 0.029904679776927626}"
-18.54085706481957,"{r -> -0.7347533119592795, μ1 -> 0.03613914626227428, μ2 -> 0., μ4 -> 0.14456093111379828}"
-44.99173167030363,"{r -> -0.9975203719396497, μ1 -> 0.4554407422611072, μ2 -> 0.07141650582949548, μ4 -> 0.014595983459427135}"
-38.81978827520892,"{r -> -0.8251603833647914, μ1 -> 0.22184106601734882, μ2 -> 0.0342537069180481, μ4 -> 0.08175629188510342}"
-50.70041300775078,"{r -> -0.9999068951790075, μ1 -> 0.38544819224019833, μ2 -> 0.1429206971039555, μ4 -> 1.058223937312621*^-8}"
-99.52317944812418,"{r -> -0.6596954018731775, μ1 -> 0.7306321495000767, μ2 -> 0.26019685482433297, μ4 -> 6.709775964325091*^-11}"
-55.11684355684251,"{r -> -0.9789288232515098, μ1 -> 0.09201092095085578, μ2 -> 0.12857958827197527, μ4 -> 0.3030021633054509}"
-19.96558990239397,"{r -> -0.13898774559073024, μ1 -> 0.0723845262112463, μ2 -> 0., μ4 -> 0.018055462771488184}"
-25.16667322851366,"{r -> -0.7321079593669981, μ1 -> 0.06214441839631717, μ2 -> 0.061658046535792, μ4 -> 0.056136583372471634}"
-14.159465740354765,"{r -> -0.9000315738754592, μ1 -> 0.03589562627728682, μ2 -> 0.036262700927073614, μ4 -> 0.03443431450666949}"
-21.64864316040692,"{r -> -0.8397914786772022, μ1 -> 0.06473801104562289, μ2 -> 0.031231528360779186, μ4 -> 0.06165352302753066}"
-8.591559572693622,"{r -> 0.07363592136947227, μ1 -> 0.03368596670335888, μ2 -> 1.3835675044311474*^-9, μ4 -> 1.3835675044312004*^-9}"
-70.57108300010546,"{r -> -0.7817316465230834, μ1 -> 0.2249504039578498, μ2 -> 0.301200869548828, μ4 -> 0.10653733320171863}"
-19.704633388217097,"{r -> -0.5954206479754218, μ1 -> 0.08255429479482776, μ2 -> 5.651755463856868*^-9, μ4 -> 0.05500065883868173}"
-69.97924166673553,"{r -> -0.9999996523807911, μ1 -> 0.7897215462384167, μ2 -> 1.1676517774412327*^-7, μ4 -> 0.04239775472454343}"
-126.1203246646042,"{r -> -0.9584231475088182, μ1 -> 0.6112726552472069, μ2 -> 0.2914275276855227, μ4 -> 0.26681176458756906}"
-47.55034183321027,"{r -> -0.9375793313576823, μ1 -> 0.0966979075086533, μ2 -> 0.09303258967084786, μ4 -> 0.2579609611165702}"
-14.900529176255258,"{r -> -0.8323537534504738, μ1 -> 0.034623549040360024, μ2 -> 0.03395695869370877, μ4 -> 0.032625405098844845}"
-19.793996254618058,"{r -> -0.7175152324814335, μ1 -> 0.08736716078376328, μ2 -> 1.1516620834603406*^-10, μ4 -> 0.05821155708990863}"
-49.420409638092046,"{r -> -0.8139709894952387, μ1 -> 0.23183672544568967, μ2 -> 0.12042073923294451, μ4 -> 0.05737300774374319}"
-24.78613882183205,"{r -> -0.7148905907519175, μ1 -> 0.09184371154382058, μ2 -> 0.056894639369823044, μ4 -> 0.02561843084250695}"
-19.476530944273364,"{r -> -1., μ1 -> 0.06668277291703448, μ2 -> 0., μ4 -> 0.09999690862653046}"
-94.38759466919973,"{r -> -0.8658174719867789, μ1 -> 0.3057630715433969, μ2 -> 0.2927595426429097, μ4 -> 0.24396259408704152}"
-21.04259747114162,"{r -> -0.6188855344142485, μ1 -> 0.029524299237157048, μ2 -> 0.028306194372296804, μ4 -> 0.08304219690167813}"
-36.28889126104231,"{r -> -0.9957408138512953, μ1 -> 0.18498138060031152, μ2 -> 0.16346780012712422, μ4 -> 0.020611702990826528}"
-74.17377842955581,"{r -> -0.9223725674275113, μ1 -> 0.29136077865700005, μ2 -> 0.1692279976765853, μ4 -> 0.26725365701099923}"
-53.18547787987595,"{r -> -0.8572485748094524, μ1 -> 0.1628325376211756, μ2 -> 0.2015439128412147, μ4 -> 0.13202374208199655}"
-42.970959304817946,"{r -> -0.7601080730906353, μ1 -> 0.30160551544088443, μ2 -> 0., μ4 -> 0.07305226298701045}"
-23.378681001983487,"{r -> -0.7023193219693943, μ1 -> 0.0617103607904791, μ2 -> 0.0591848351009242, μ4 -> 0.05573315721648653}"
-73.10819698423751,"{r -> -0.8855344471161041, μ1 -> 0.17272751151385943, μ2 -> 0.16387060540054224, μ4 -> 0.39867072217616506}"
-34.892536125815454,"{r -> -0.8304422536940546, μ1 -> 0.20546869503134596, μ2 -> 0.06144610733202704, μ4 -> 0.09333094002018824}"
-50.15877054412957,"{r -> -0.8565829777748224, μ1 -> 0.18919044216293798, μ2 -> 0.0743666446853422, μ4 -> 0.17762949424448413}"
-24.79922032478438,"{r -> -0.6103054660439531, μ1 -> 0.028042326518724126, μ2 -> 0.056354200159274725, μ4 -> 0.07871207007473746}"
-17.02891910333827,"{r -> -0.7900488964027801, μ1 -> 0.07055287169497473, μ2 -> 0.06221131861281056, μ4 -> 0.}"
-11.910914600866507,"{r -> 0.32341470972751574, μ1 -> 0.03382897685586806, μ2 -> 0., μ4 -> 0.}"
-60.77642139320869,"{r -> -0.8319533088268343, μ1 -> 0.23212608131608795, μ2 -> 0.16601590551985898, μ4 -> 0.11751810931033317}"
-56.57635032894391,"{r -> -0.9972631612807396, μ1 -> 0.43842126070081394, μ2 -> 0.2888277313633079, μ4 -> 0.1478403548062748}"
-24.37954598800153,"{r -> -0.8273897305774537, μ1 -> 0.03142281744977467, μ2 -> 0.14312183485067131, μ4 -> 0.018921367674215987}"
-5.0690145921850185,"{r -> -0.998284660529245, μ1 -> 0.03386441020158749, μ2 -> 0., μ4 -> 1.0608851143836108*^-10}"
-13.49563523417549,"{r -> -0.8059315556125043, μ1 -> 0.06689957968272493, μ2 -> 2.551675134409439*^-11, μ4 -> 0.033439587356456614}"
-48.90316853001847,"{r -> -0.9205197400621558, μ1 -> 0.14879543079436597, μ2 -> 0.022922581253863716, μ4 -> 0.2725592636617632}"
-24.725707177282676,"{r -> -0.8091189321120071, μ1 -> 0.20661602625566958, μ2 -> 0.04017141022225254, μ4 -> 4.9105143728063224*^-11}"
-28.31590048761523,"{r -> -0.7063413736173138, μ1 -> 0.06035623329606347, μ2 -> 0.0614341606411104, μ4 -> 0.08178701692155547}"
-30.614465307025757,"{r -> -0.7751195097875558, μ1 -> 0.2606244384067069, μ2 -> 3.440802388489043*^-7, μ4 -> 0.027750593052722976}"
-25.327903203977627,"{r -> -0.7298814336085608, μ1 -> 0.09737869279681902, μ2 -> 0.056559534521016086, μ4 -> 0.026292929695732194}"
-25.16667322851366,"{r -> -0.7321079593669981, μ1 -> 0.06214441839631717, μ2 -> 0.061658046535792, μ4 -> 0.056136583372471634}"
-41.52706795996608,"{r -> -0.8738117837884172, μ1 -> 0.0926418452599793, μ2 -> 0.0883357690998454, μ4 -> 0.19008671897532972}"
-39.179606909495085,"{r -> -0.7577313601123734, μ1 -> 0.20676498692289985, μ2 -> 0.008232219804963685, μ4 -> 0.09889020186044088}"
-39.64884795711981,"{r -> -0.8880601230957715, μ1 -> 0.028331792135346087, μ2 -> 0.06566695380343894, μ4 -> 0.23961178579625286}"
-19.305790517105425,"{r -> -0.4089776457371386, μ1 -> 0.11305028010006267, μ2 -> 0.014656570817225087, μ4 -> 1.0584657278863163*^-9}"
-13.415440656078186,"{r -> -0.8068636164201878, μ1 -> 0.07265579301210115, μ2 -> 0.03048477247196062, μ4 -> 3.290639376743948*^-11}"
-37.91873476184095,"{r -> -0.9431165058765967, μ1 -> 0.40180610659230076, μ2 -> 0.0323154083351825, μ4 -> 0.022728264665281384}"
-35.8040968448874,"{r -> -0.8492217245251926, μ1 -> 0.13994974116636755, μ2 -> 0.02066826382141534, μ4 -> 0.1473367836342039}"
-19.881788694685277,"{r -> -0.700240352744727, μ1 -> 0.08504660046154908, μ2 -> 0., μ4 -> 0.05667030662998083}"
